TOP/dump.vcd
$date
	Fri Jul 22 11:36:45 2022
$end
$version
	Icarus Verilog
$end
$timescale
	1s
$end
$scope module TOP $end
$var wire 1 ! reset_tmp $end
$var wire 1 " rw_tmp $end
$var wire 1 # tx_done $end
$var wire 1 $ tx_dat $end
$var wire 1 % p_load $end
$var wire 32 & m4_out [31:0] $end
$var wire 4 ' m3_out [3:0] $end
$var wire 8 ( m2_out [7:0] $end
$var wire 8 ) m1_out [7:0] $end
$var wire 4 * flag_tmp [3:0] $end
$var wire 32 + data_tmp [31:0] $end
$var wire 1 , ctrl_rw_mem $end
$var wire 1 - ctrl_ac_mem $end
$var wire 1 . clk_tx $end
$var wire 1 / calc_mode $end
$var wire 1 0 calc_active $end
$var wire 1 1 busy $end
$var wire 8 2 alu_out_tmp [7:0] $end
$var wire 1 3 Dout_valid $end
$var wire 1 4 Dout $end
$var wire 32 5 D_OUT [31:0] $end
$var reg 32 6 Din [31:0] $end
$var reg 8 7 addr [7:0] $end
$var reg 1 8 clk $end
$var reg 1 9 conf_div $end
$var reg 8 : in_a [7:0] $end
$var reg 8 ; in_b [7:0] $end
$var reg 1 < input_key $end
$var reg 1 = reset $end
$var reg 1 > rw $end
$var reg 4 ? sel [3:0] $end
$var reg 1 @ valid_cmd $end
$scope module buffer $end
$var wire 4 A E [3:0] $end
$var wire 4 B D [3:0] $end
$var wire 8 C C [7:0] $end
$var wire 8 D B [7:0] $end
$var wire 8 E A [7:0] $end
$var reg 32 F out [31:0] $end
$upscope $end
$scope module control_rw_flow $end
$var wire 1 8 clk $end
$var wire 1 = reset $end
$var wire 1 " rw $end
$var wire 1 @ valid_cmd $end
$var wire 1 # tx_done $end
$var wire 1 / mode $end
$var wire 1 0 active $end
$var reg 1 - ac_mem $end
$var reg 1 1 busy $end
$var reg 1 % p_load $end
$var reg 1 , rw_mem $end
$var reg 3 G s_c [2:0] $end
$var reg 3 H s_v [2:0] $end
$var reg 1 $ tx_dat $end
$upscope $end
$scope module dec_input_key $end
$var wire 1 0 active $end
$var wire 1 8 clk $end
$var wire 1 < input_key $end
$var wire 1 / mode $end
$var wire 1 = reset $end
$var wire 1 I s0v $end
$var wire 1 J s1v $end
$var wire 1 K s2v $end
$var wire 1 @ valid_cmd $end
$var wire 1 L s2 $end
$var wire 1 M s1 $end
$var wire 1 N s0 $end
$scope module d0 $end
$var wire 1 8 clk $end
$var wire 1 I d $end
$var wire 1 = reset $end
$var reg 1 N q $end
$upscope $end
$scope module d1 $end
$var wire 1 8 clk $end
$var wire 1 J d $end
$var wire 1 = reset $end
$var reg 1 M q $end
$upscope $end
$scope module d2 $end
$var wire 1 8 clk $end
$var wire 1 K d $end
$var wire 1 = reset $end
$var reg 1 L q $end
$upscope $end
$upscope $end
$scope module div_freq $end
$var wire 32 O Din [31:0] $end
$var wire 1 8 clk $end
$var wire 1 9 conf_div $end
$var wire 1 $ enable $end
$var wire 1 ! reset $end
$var reg 1 . clk_out $end
$var reg 32 P count [31:0] $end
$var reg 32 Q neg_count [31:0] $end
$var reg 32 R pos_count [31:0] $end
$var reg 32 S t [31:0] $end
$upscope $end
$scope module m1 $end
$var wire 8 T in_1 [7:0] $end
$var wire 8 U in_2 [7:0] $end
$var wire 1 ! sel $end
$var reg 8 V out [7:0] $end
$upscope $end
$scope module m2 $end
$var wire 8 W in_1 [7:0] $end
$var wire 8 X in_2 [7:0] $end
$var wire 1 ! sel $end
$var reg 8 Y out [7:0] $end
$upscope $end
$scope module m3 $end
$var wire 4 Z in_1 [3:0] $end
$var wire 4 [ in_2 [3:0] $end
$var wire 1 ! sel $end
$var reg 4 \ out [3:0] $end
$upscope $end
$scope module m4 $end
$var wire 32 ] in_1 [31:0] $end
$var wire 1 / sel $end
$var wire 32 ^ in_2 [31:0] $end
$var reg 32 _ out [31:0] $end
$upscope $end
$scope module m_alu $end
$var wire 8 ` A [7:0] $end
$var wire 8 a B [7:0] $end
$var wire 4 b SEL_TMP [3:0] $end
$var reg 8 c ALU_OUT_TMP [7:0] $end
$var reg 4 d FLAG_TMP [3:0] $end
$var reg 1 e cf $end
$var reg 8 f neg [7:0] $end
$var reg 1 g of $end
$var reg 1 h uf $end
$var reg 1 i zf $end
$upscope $end
$scope module memory $end
$var wire 8 j Addr [7:0] $end
$var wire 32 k Din [31:0] $end
$var wire 1 - Valid $end
$var wire 1 8 clk $end
$var wire 1 ! reset $end
$var wire 1 , rw $end
$var reg 32 l Dout [31:0] $end
$var integer 32 m pos [31:0] $end
$upscope $end
$scope module reg_shift_pload $end
$var wire 32 n Din [31:0] $end
$var wire 1 8 clk $end
$var wire 1 . clk_tx $end
$var wire 1 % p_load $end
$var wire 1 ! reset $end
$var wire 1 $ start_tx $end
$var reg 1 4 Dout $end
$var reg 32 o buffer [31:0] $end
$var reg 1 p r_v $end
$var reg 1 3 tx_busy $end
$var reg 1 # tx_done $end
$var integer 32 q pos [31:0] $end
$upscope $end
$upscope $end
$enddefinitions $end
#0
$dumpvars
b0 q
xp
b0 o
b1000000000000000000000000 n
b100000000 m
b0 l
b1000000000000000000000000 k
bx j
1i
0h
0g
bx f
0e
b1 d
b0 c
b0 b
b0 a
b0 `
b1000000000000000000000000 _
b0 ^
b1000000000000000000000000 ]
b0 \
b0 [
bx Z
b0 Y
b0 X
bx W
b0 V
b0 U
bx T
b1 S
b0 R
b0 Q
b0 P
b1 O
0N
0M
0L
0K
0J
0I
b0 H
b0 G
b1000000000000000000000000 F
b0 E
b0 D
b0 C
b1 B
b0 A
1@
bx ?
1>
1=
0<
bx ;
bx :
19
08
bx 7
b1 6
b0 5
z4
03
b0 2
01
00
0/
0.
0-
0,
b1000000000000000000000000 +
b1 *
b0 )
b0 (
b0 '
b1000000000000000000000000 &
0%
0$
0#
0"
1!
$end
#5
1.
b100000000 m
18
#10
0.
08
#15
bz 5
bz ^
bz l
bx000000000000xxxxxxxxxxxxxxxx &
bx000000000000xxxxxxxxxxxxxxxx _
bx000000000000xxxxxxxxxxxxxxxx n
bx000000000000xxxxxxxxxxxxxxxx +
bx000000000000xxxxxxxxxxxxxxxx F
bx000000000000xxxxxxxxxxxxxxxx ]
bx000000000000xxxxxxxxxxxxxxxx k
b0 *
b0 B
b0 d
0i
bx )
bx E
bx V
bx `
bx (
bx D
bx Y
bx a
bx '
bx A
bx \
bx b
0!
18
0=
#20
08
#25
18
#29
1I
1<
#30
08
#35
0I
1N
18
#39
1J
1I
0<
#40
08
#45
0I
0J
1M
18
#49
1J
1<
#50
08
#55
0J
0N
18
#59
1K
1J
0<
#60
08
#65
1I
1L
18
#69
0J
1<
#70
08
#75
bz &
bz _
bz n
1/
1"
b110 H
10
1N
0M
18
#79
09
0<
#80
08
#85
1,
1-
b0 H
b110 G
1.
18
#89
b11000111111110000100000000111 +
b11000111111110000100000000111 F
b11000111111110000100000000111 ]
b11000111111110000100000000111 k
b1000 *
b1000 B
b1000 d
b11111111 2
b11111111 C
b11111111 c
b11111000 f
1h
b1 '
b1 A
b1 \
b1 b
b1000 (
b1000 D
b1000 Y
b1000 a
b111 )
b111 E
b111 V
b111 `
b1 ?
b1 Z
b1000 ;
b1000 W
b111 :
b111 T
b0 7
b0 j
#90
0.
08
#95
0,
0-
b110 H
b0 G
1.
18
#100
0.
08
#104
b100100110000010001111100011111 +
b100100110000010001111100011111 F
b100100110000010001111100011111 ]
b100100110000010001111100011111 k
b100 *
b100 B
b100 d
b11000001 2
b11000001 C
b11000001 c
1g
0h
b10 '
b10 A
b10 \
b10 b
b11111 (
b11111 D
b11111 Y
b11111 a
b11111 )
b11111 E
b11111 V
b11111 `
b10 ?
b10 Z
b11111 ;
b11111 W
b11111 :
b11111 T
b1 7
b1 j
#105
1,
1-
b0 H
b110 G
1.
18
#110
0.
08
#115
0,
0-
b110 H
b0 G
1.
18
#119
b1 H
0"
b0 7
b0 j
0>
#120
0.
08
#125
11
1-
b11 H
b1 G
1.
18
#130
0.
08
#135
1%
0-
b10 H
b11000111111110000100000000111 &
b11000111111110000100000000111 _
b11000111111110000100000000111 n
b11 G
b11000111111110000100000000111 5
b11000111111110000100000000111 ^
b11000111111110000100000000111 l
1.
18
#140
0.
08
#145
1$
0%
bz &
bz _
bz n
b10 G
1p
1.
bz 5
bz ^
bz l
b0 q
18
#150
0.
08
#155
b1 q
04
13
1.
18
#160
0.
08
#165
b10 q
1.
18
#170
0.
08
#175
b11 q
1.
18
#180
0.
08
#185
b100 q
1.
18
#190
0.
08
#195
b101 q
1.
18
#200
0.
08
#205
b110 q
1.
18
#210
0.
08
#215
b111 q
1.
18
#220
0.
08
#225
b1000 q
1.
18
#230
0.
08
#235
b1001 q
1.
18
#240
0.
08
#245
b1010 q
1.
18
#250
0.
08
#255
b1011 q
1.
18
#260
0.
08
#265
b1100 q
1.
18
#270
0.
08
#275
b1101 q
1.
18
#280
0.
08
#285
b1110 q
1.
18
#290
0.
08
#295
b1111 q
1.
18
#300
0.
08
#305
b10000 q
1.
18
#310
0.
08
#315
b10001 q
1.
18
#320
0.
08
#325
b10010 q
1.
18
#330
0.
08
#335
b10011 q
1.
18
#340
0.
08
#345
b10100 q
1.
18
#350
0.
08
#355
b10101 q
1.
18
#360
0.
08
#365
b10110 q
1.
18
#370
0.
08
#375
b10111 q
1.
18
#380
0.
08
#385
b11000 q
1.
18
#390
0.
08
#395
b11001 q
1.
18
#400
0.
08
#405
b11010 q
1.
18
#410
0.
08
#415
b11011 q
1.
18
#420
0.
08
#425
b11100 q
1.
18
#430
0.
08
#435
b11101 q
1.
18
#440
0.
08
#445
b11110 q
1.
18
#450
0.
08
#455
b11111 q
1.
18
#460
0.
08
#465
b0 H
b100000 q
1#
1.
18
#470
0.
08
#475
b100001 q
z4
03
0#
01
0$
b1 H
b0 G
1.
18
#480
0.
08
#485
11
1-
b11 H
b1 G
1.
18
#490
0.
08
#495
1%
0-
b10 H
b11000111111110000100000000111 &
b11000111111110000100000000111 _
b11000111111110000100000000111 n
b11 G
b11000111111110000100000000111 5
b11000111111110000100000000111 ^
b11000111111110000100000000111 l
1.
18
#500
0.
08
#505
1$
0%
bz &
bz _
bz n
b10 G
b11000111111110000100000000111 o
1.
bz 5
bz ^
bz l
b0 q
18
#510
0.
08
#515
b1 q
14
13
1.
18
#520
0.
08
#525
b10 q
1.
18
#530
0.
08
#535
b11 q
1.
18
#540
0.
08
#545
b100 q
04
1.
18
#550
0.
08
#555
b101 q
1.
18
#560
0.
08
#565
b110 q
1.
18
#570
0.
08
#575
b111 q
1.
18
#580
0.
08
#585
b1000 q
1.
18
#590
0.
08
#595
b1001 q
1.
18
#600
0.
08
#605
b1010 q
1.
18
#610
0.
08
#615
b1011 q
1.
18
#620
0.
08
#625
b1100 q
14
1.
18
#630
0.
08
#635
b1101 q
04
1.
18
#640
0.
08
#645
b1110 q
1.
18
#650
0.
08
#655
b1111 q
1.
18
#660
0.
08
#665
b10000 q
1.
18
#670
0.
08
#675
b10001 q
14
1.
18
#680
0.
08
#685
b10010 q
1.
18
#690
0.
08
#695
b10011 q
1.
18
#700
0.
08
#705
b10100 q
1.
18
#710
0.
08
#715
b10101 q
1.
18
#720
0.
08
#725
b10110 q
1.
18
#730
0.
08
#735
b10111 q
1.
18
#740
0.
08
#745
b11000 q
1.
18
#750
0.
08
#755
b11001 q
04
1.
18
#760
0.
08
#765
b11010 q
1.
18
#770
0.
08
#775
b11011 q
1.
18
#780
0.
08
#785
b11100 q
14
1.
18
#790
0.
08
#795
b11101 q
1.
18
#800
0.
08
#805
b11110 q
04
1.
18
#810
0.
08
#815
b11111 q
1.
18
#820
0.
08
#825
b0 H
b100000 q
1#
1.
18
#830
0.
08
#835
b100001 q
z4
03
0#
01
0$
b1 H
b0 G
1.
18
#840
0.
08
#845
11
1-
b11 H
b1 G
1.
18
#850
0.
08
#854
b1 7
b1 j
#855
1%
0-
b10 H
b100100110000010001111100011111 &
b100100110000010001111100011111 _
b100100110000010001111100011111 n
b11 G
b100100110000010001111100011111 5
b100100110000010001111100011111 ^
b100100110000010001111100011111 l
1.
18
#860
0.
08
#865
1$
0%
bz &
bz _
bz n
b10 G
b100100110000010001111100011111 o
1.
bz 5
bz ^
bz l
b0 q
18
#870
0.
08
#875
b1 q
14
13
1.
18
#880
0.
08
#885
b10 q
1.
18
#890
0.
08
#895
b11 q
1.
18
#900
0.
08
#905
b100 q
1.
18
#910
0.
08
#915
b101 q
1.
18
#920
0.
08
#925
b110 q
04
1.
18
#930
0.
08
#935
b111 q
1.
18
#940
0.
08
#945
b1000 q
1.
18
#950
0.
08
#955
b1001 q
14
1.
18
#960
0.
08
#965
b1010 q
1.
18
#970
0.
08
#975
b1011 q
1.
18
#980
0.
08
#985
b1100 q
1.
18
#990
0.
08
#995
b1101 q
1.
18
#1000
0.
08
#1005
b1110 q
04
1.
18
#1010
0.
08
#1015
b1111 q
1.
18
#1020
0.
08
#1025
b10000 q
1.
18
#1030
0.
08
#1035
b10001 q
14
1.
18
#1040
0.
08
#1045
b10010 q
04
1.
18
#1050
0.
08
#1055
b10011 q
1.
18
#1060
0.
08
#1065
b10100 q
1.
18
#1070
0.
08
#1075
b10101 q
1.
18
#1080
0.
08
#1085
b10110 q
1.
18
#1090
0.
08
#1095
b10111 q
14
1.
18
#1100
0.
08
#1105
b11000 q
1.
18
#1110
0.
08
#1115
b11001 q
04
1.
18
#1120
0.
08
#1125
b11010 q
1.
18
#1130
0.
08
#1135
b11011 q
14
1.
18
#1140
0.
08
#1145
b11100 q
04
1.
18
#1150
0.
08
#1155
b11101 q
1.
18
#1160
0.
08
#1165
b11110 q
14
1.
18
#1170
0.
08
#1175
b11111 q
04
1.
18
#1180
0.
08
#1185
b0 H
b100000 q
1#
1.
18
#1190
0.
08
#1195
b100001 q
z4
03
0#
01
0$
b1 H
b0 G
1.
18
#1200
0.
08
#1205
11
1-
b11 H
b1 G
1.
18
#1210
0.
08
#1215
1%
0-
b10 H
b100100110000010001111100011111 &
b100100110000010001111100011111 _
b100100110000010001111100011111 n
b11 G
b100100110000010001111100011111 5
b100100110000010001111100011111 ^
b100100110000010001111100011111 l
1.
18
#1220
0.
08
#1225
1$
0%
bz &
bz _
bz n
b10 G
1.
bz 5
bz ^
bz l
b0 q
18
#1230
0.
08
#1235
b1 q
14
13
1.
18
#1240
0.
08
#1245
b10 q
1.
18
#1250
0.
08
#1255
b11 q
1.
18
#1260
0.
08
#1265
b100 q
1.
18
#1270
0.
08
#1275
b101 q
1.
18
#1280
0.
08
#1285
b110 q
04
1.
18
#1290
0.
08
#1295
b111 q
1.
18
#1300
0.
08
#1305
b1000 q
1.
18
#1310
0.
08
#1315
b1001 q
14
1.
18
#1320
0.
08
#1325
b1010 q
1.
18
#1330
0.
08
#1335
b1011 q
1.
18
#1340
0.
08
#1345
b1100 q
1.
18
#1350
0.
08
#1355
b1101 q
1.
18
#1360
0.
08
#1365
b1110 q
04
1.
18
#1370
0.
08
#1375
b1111 q
1.
18
#1380
0.
08
#1385
b10000 q
1.
18
#1390
0.
08
#1395
b10001 q
14
1.
18
#1400
0.
08
#1405
b10010 q
04
1.
18
#1410
0.
08
#1415
b10011 q
1.
18
#1420
0.
08
#1425
b10100 q
1.
18
#1430
0.
08
#1435
b10101 q
1.
18
#1440
0.
08
#1445
b10110 q
1.
18
#1450
0.
08
#1455
b10111 q
14
1.
18
#1460
0.
08
#1465
b11000 q
1.
18
#1470
0.
08
#1475
b11001 q
04
1.
18
#1480
0.
08
#1485
b11010 q
1.
18
#1490
0.
08
#1495
b11011 q
14
1.
18
#1500
0.
08
#1505
b11100 q
04
1.
18
#1510
0.
08
#1515
b11101 q
1.
18
#1520
0.
08
#1525
b11110 q
14
1.
18
#1530
0.
08
#1535
b11111 q
04
1.
18
#1540
0.
08
#1545
b0 H
b100000 q
1#
1.
18
#1550
0.
08
#1555
b100001 q
z4
03
0#
01
0$
b1 H
b0 G
1.
18
#1560
0.
08
#1565
11
1-
b11 H
b1 G
1.
18
#1570
0.
08
#1575
1%
0-
b10 H
b100100110000010001111100011111 &
b100100110000010001111100011111 _
b100100110000010001111100011111 n
b11 G
b100100110000010001111100011111 5
b100100110000010001111100011111 ^
b100100110000010001111100011111 l
1.
18
#1580
0.
08
#1585
1$
0%
bz &
bz _
bz n
b10 G
1.
bz 5
bz ^
bz l
b0 q
18
#1590
0.
08
#1595
b1 q
14
13
1.
18
#1600
0.
08
#1605
b10 q
1.
18
#1610
0.
08
#1615
b11 q
1.
18
#1620
0.
08
#1625
b100 q
1.
18
#1630
0.
08
#1635
b101 q
1.
18
#1640
0.
08
#1645
b110 q
04
1.
18
#1650
0.
08
#1655
b111 q
1.
18
#1660
0.
08
#1665
b1000 q
1.
18
#1670
0.
08
#1675
b1001 q
14
1.
18
#1680
0.
08
#1685
b1010 q
1.
18
#1690
0.
08
#1695
b1011 q
1.
18
#1700
0.
08
#1705
b1100 q
1.
18
#1710
0.
08
#1715
b1101 q
1.
18
#1720
0.
08
#1725
b1110 q
04
1.
18
#1730
0.
08
#1735
b1111 q
1.
18
#1740
0.
08
#1745
b10000 q
1.
18
#1750
0.
08
#1755
b10001 q
14
1.
18
#1760
0.
08
#1765
b10010 q
04
1.
18
#1770
0.
08
#1775
b10011 q
1.
18
#1780
0.
08
#1785
b10100 q
1.
18
#1790
0.
08
#1795
b10101 q
1.
18
#1800
0.
08
#1805
b10110 q
1.
18
#1810
0.
08
#1815
b10111 q
14
1.
18
#1820
0.
08
#1825
b11000 q
1.
18
#1830
0.
08
#1835
b11001 q
04
1.
18
#1840
0.
08
#1845
b11010 q
1.
18
#1850
0.
08
#1855
b11011 q
14
1.
18
#1860
0.
08
#1865
b11100 q
04
1.
18
#1870
0.
08
#1875
b11101 q
1.
18
#1880
0.
08
#1885
b11110 q
14
1.
18
#1890
0.
08
#1895
b11111 q
04
1.
18
#1900
0.
08
#1905
b0 H
b100000 q
1#
1.
18
#1910
0.
08
#1915
b100001 q
z4
03
0#
01
0$
b1 H
b0 G
1.
18
#1920
0.
08
#1925
11
1-
b11 H
b1 G
1.
18
#1930
0.
08
#1935
1%
0-
b10 H
b100100110000010001111100011111 &
b100100110000010001111100011111 _
b100100110000010001111100011111 n
b11 G
b100100110000010001111100011111 5
b100100110000010001111100011111 ^
b100100110000010001111100011111 l
1.
18
#1940
0.
08
#1945
1$
0%
bz &
bz _
bz n
b10 G
1.
bz 5
bz ^
bz l
b0 q
18
#1950
0.
08
#1955
b1 q
14
13
1.
18
#1960
0.
08
#1965
b10 q
1.
18
#1970
0.
08
#1975
b11 q
1.
18
#1980
0.
08
#1985
b100 q
1.
18
#1990
0.
08
#1995
b101 q
1.
18
#2000
0.
08
#2005
b110 q
04
1.
18
#2010
0.
08
#2015
b111 q
1.
18
#2020
0.
08
#2025
b1000 q
1.
18
#2030
0.
08
#2035
b1001 q
14
1.
18
#2040
0.
08
#2045
b1010 q
1.
18
#2050
0.
08
#2055
b1011 q
1.
18
#2060
0.
08
#2065
b1100 q
1.
18
#2070
0.
08
#2075
b1101 q
1.
18
#2080
0.
08
#2085
b1110 q
04
1.
18
#2090
0.
08
#2095
b1111 q
1.
18
#2100
0.
08
#2105
b10000 q
1.
18
#2110
0.
08
#2115
b10001 q
14
1.
18
#2120
0.
08
#2125
b10010 q
04
1.
18
#2130
0.
08
#2135
b10011 q
1.
18
#2140
0.
08
#2145
b10100 q
1.
18
#2150
0.
08
#2155
b10101 q
1.
18
#2160
0.
08
#2165
b10110 q
1.
18
#2170
0.
08
#2175
b10111 q
14
1.
18
#2180
0.
08
#2185
b11000 q
1.
18
#2190
0.
08
#2195
b11001 q
04
1.
18
#2200
0.
08
#2205
b11010 q
1.
18
#2210
0.
08
#2215
b11011 q
14
1.
18
#2220
0.
08
#2225
b11100 q
04
1.
18
#2230
0.
08
#2235
b11101 q
1.
18
#2240
0.
08
#2245
b11110 q
14
1.
18
#2250
0.
08
#2255
b11111 q
04
1.
18
#2260
0.
08
#2265
b0 H
b100000 q
1#
1.
18
#2270
0.
08
#2275
b100001 q
z4
03
0#
01
0$
b1 H
b0 G
1.
18
#2280
0.
08
#2285
11
1-
b11 H
b1 G
1.
18
#2290
0.
08
#2295
1%
0-
b10 H
b100100110000010001111100011111 &
b100100110000010001111100011111 _
b100100110000010001111100011111 n
b11 G
b100100110000010001111100011111 5
b100100110000010001111100011111 ^
b100100110000010001111100011111 l
1.
18
#2300
0.
08
#2305
1$
0%
bz &
bz _
bz n
b10 G
1.
bz 5
bz ^
bz l
b0 q
18
#2310
0.
08
#2315
b1 q
14
13
1.
18
#2320
0.
08
#2325
b10 q
1.
18
#2330
0.
08
#2335
b11 q
1.
18
#2340
0.
08
#2345
b100 q
1.
18
#2350
0.
08
#2355
b101 q
1.
18
#2360
0.
08
#2365
b110 q
04
1.
18
#2370
0.
08
#2375
b111 q
1.
18
#2380
0.
08
#2385
b1000 q
1.
18
#2390
0.
08
#2395
b1001 q
14
1.
18
#2400
0.
08
#2405
b1010 q
1.
18
#2410
0.
08
#2415
b1011 q
1.
18
#2420
0.
08
#2425
b1100 q
1.
18
#2430
0.
08
#2435
b1101 q
1.
18
#2440
0.
08
#2445
b1110 q
04
1.
18
#2450
0.
08
#2455
b1111 q
1.
18
#2460
0.
08
#2465
b10000 q
1.
18
#2470
0.
08
#2475
b10001 q
14
1.
18
#2480
0.
08
#2485
b10010 q
04
1.
18
#2490
0.
08
#2495
b10011 q
1.
18
#2500
0.
08
#2505
b10100 q
1.
18
#2510
0.
08
#2515
b10101 q
1.
18
#2520
0.
08
#2525
b10110 q
1.
18
#2530
0.
08
#2535
b10111 q
14
1.
18
#2540
0.
08
#2545
b11000 q
1.
18
#2550
0.
08
#2555
b11001 q
04
1.
18
#2560
0.
08
#2565
b11010 q
1.
18
#2570
0.
08
#2575
b11011 q
14
1.
18
#2580
0.
08
#2585
b11100 q
04
1.
18
#2590
0.
08
#2595
b11101 q
1.
18
#2600
0.
08
#2605
b11110 q
14
1.
18
#2610
0.
08
#2615
b11111 q
04
1.
18
#2620
0.
08
#2625
b0 H
b100000 q
1#
1.
18
#2630
0.
08
#2635
b100001 q
z4
03
0#
01
0$
b1 H
b0 G
1.
18
#2640
0.
08
#2645
11
1-
b11 H
b1 G
1.
18
#2650
0.
08
#2655
1%
0-
b10 H
b100100110000010001111100011111 &
b100100110000010001111100011111 _
b100100110000010001111100011111 n
b11 G
b100100110000010001111100011111 5
b100100110000010001111100011111 ^
b100100110000010001111100011111 l
1.
18
#2660
0.
08
#2665
1$
0%
bz &
bz _
bz n
b10 G
1.
bz 5
bz ^
bz l
b0 q
18
#2670
0.
08
#2675
b1 q
14
13
1.
18
#2680
0.
08
#2685
b10 q
1.
18
#2690
0.
08
#2695
b11 q
1.
18
#2700
0.
08
#2705
b100 q
1.
18
#2710
0.
08
#2715
b101 q
1.
18
#2720
0.
08
#2725
b110 q
04
1.
18
#2730
0.
08
#2735
b111 q
1.
18
#2740
0.
08
#2745
b1000 q
1.
18
#2750
0.
08
#2755
b1001 q
14
1.
18
#2760
0.
08
#2765
b1010 q
1.
18
#2770
0.
08
#2775
b1011 q
1.
18
#2780
0.
08
#2785
b1100 q
1.
18
#2790
0.
08
#2795
b1101 q
1.
18
#2800
0.
08
#2805
b1110 q
04
1.
18
#2810
0.
08
#2815
b1111 q
1.
18
#2820
0.
08
#2825
b10000 q
1.
18
#2830
0.
08
#2835
b10001 q
14
1.
18
#2840
0.
08
#2845
b10010 q
04
1.
18
#2850
0.
08
#2855
b10011 q
1.
18
#2860
0.
08
#2865
b10100 q
1.
18
#2870
0.
08
#2875
b10101 q
1.
18
#2880
0.
08
#2885
b10110 q
1.
18
#2890
0.
08
#2895
b10111 q
14
1.
18
#2900
0.
08
#2905
b11000 q
1.
18
#2910
0.
08
#2915
b11001 q
04
1.
18
#2920
0.
08
#2925
b11010 q
1.
18
#2930
0.
08
#2935
b11011 q
14
1.
18
#2940
0.
08
#2945
b11100 q
04
1.
18
#2950
0.
08
#2955
b11101 q
1.
18
#2960
0.
08
#2965
b11110 q
14
1.
18
#2970
0.
08
#2975
b11111 q
04
1.
18
#2980
0.
08
#2985
b0 H
b100000 q
1#
1.
18
#2990
0.
08
#2995
b100001 q
z4
03
0#
01
0$
b1 H
b0 G
1.
18
#3000
0.
08
#3005
11
1-
b11 H
b1 G
1.
18
#3010
0.
08
#3015
1%
0-
b10 H
b100100110000010001111100011111 &
b100100110000010001111100011111 _
b100100110000010001111100011111 n
b11 G
b100100110000010001111100011111 5
b100100110000010001111100011111 ^
b100100110000010001111100011111 l
1.
18
#3020
0.
08
#3025
1$
0%
bz &
bz _
bz n
b10 G
1.
bz 5
bz ^
bz l
b0 q
18
#3030
0.
08
#3035
b1 q
14
13
1.
18
#3040
0.
08
#3045
b10 q
1.
18
#3050
0.
08
#3055
b11 q
1.
18
#3060
0.
08
#3065
b100 q
1.
18
#3070
0.
08
#3075
b101 q
1.
18
#3080
0.
08
#3085
b110 q
04
1.
18
#3090
0.
08
#3095
b111 q
1.
18
#3100
0.
08
#3105
b1000 q
1.
18
#3110
0.
08
#3115
b1001 q
14
1.
18
#3120
0.
08
#3125
b1010 q
1.
18
#3130
0.
08
#3135
b1011 q
1.
18
#3140
0.
08
#3145
b1100 q
1.
18
#3150
0.
08
#3155
b1101 q
1.
18
#3160
0.
08
#3165
b1110 q
04
1.
18
#3170
0.
08
#3175
b1111 q
1.
18
#3180
0.
08
#3185
b10000 q
1.
18
